{
	"info": {
		"_postman_id": "ecca3759-9036-4364-9179-f1979ba47aa4",
		"name": "New Collection",
		"schema": "https://schema.getpostman.com/json/collection/v2.1.0/collection.json",
		"_exporter_id": "14475207"
	},
	"item": [
		{
			"name": "auth",
			"item": [
				{
					"name": "signup",
					"event": [
						{
							"listen": "test",
							"script": {
								"exec": [
									"pm.collectionVariables.set(\"token\", pm.response.json().token)\r",
									"pm.test(\"status not found\", function(){\r",
									"    pm.response.to.have.status(404)\r",
									"})\r",
									"pm.test(\"Status ok\", function(){\r",
									"    pm.response.to.have.status(200)\r",
									"})\r",
									"pm.test(\"Responce status ok\", function () {\r",
									"    pm.response.to.not.be.error;\r",
									"    pm.response.to.have.jsonBody(\"\");\r",
									"    pm.response.to.not.have.jsonBody(\"error\");\r",
									"});\r",
									"pm.test(\"Response have body\", function () {\r",
									"     pm.response.to.be.ok;\r",
									"     pm.response.to.be.withBody;\r",
									"     pm.response.to.be.json;\r",
									"});"
								],
								"type": "text/javascript"
							}
						}
					],
					"request": {
						"method": "POST",
						"header": [],
						"body": {
							"mode": "raw",
							"raw": "{\r\n    \"email\": {{email}},\r\n    \"password\": {{password}}\r\n}",
							"options": {
								"raw": {
									"language": "json"
								}
							}
						},
						"url": {
							"raw": "http://localhost:8000/api/auth/register",
							"protocol": "http",
							"host": [
								"localhost"
							],
							"port": "8000",
							"path": [
								"api",
								"auth",
								"register"
							]
						}
					},
					"response": []
				},
				{
					"name": "login",
					"event": [
						{
							"listen": "test",
							"script": {
								"exec": [
									"pm.collectionVariables.set(\"token\", pm.response.json().token)\r",
									"pm.test(\"status not found\", function(){\r",
									"    pm.response.to.have.status(404)\r",
									"})\r",
									"pm.test(\"Status ok\", function(){\r",
									"    pm.response.to.have.status(200)\r",
									"})\r",
									"pm.test(\"Responce status ok\", function () {\r",
									"    pm.response.to.not.be.error;\r",
									"    pm.response.to.have.jsonBody(\"\");\r",
									"    pm.response.to.not.have.jsonBody(\"error\");\r",
									"});\r",
									"pm.test(\"Response have body\", function () {\r",
									"     pm.response.to.be.ok;\r",
									"     pm.response.to.be.withBody;\r",
									"     pm.response.to.be.json;\r",
									"});"
								],
								"type": "text/javascript"
							}
						}
					],
					"request": {
						"method": "POST",
						"header": [],
						"body": {
							"mode": "raw",
							"raw": "{\r\n    \"email\": \"a@io.aa\",\r\n    \"password\": \"password\"\r\n}",
							"options": {
								"raw": {
									"language": "json"
								}
							}
						},
						"url": {
							"raw": "http://localhost:8000/api/auth/login",
							"protocol": "http",
							"host": [
								"localhost"
							],
							"port": "8000",
							"path": [
								"api",
								"auth",
								"login"
							]
						}
					},
					"response": []
				}
			]
		},
		{
			"name": "newsposts",
			"item": [
				{
					"name": "newsposts",
					"event": [
						{
							"listen": "test",
							"script": {
								"exec": [
									"pm.test(\"status not found\", function(){\r",
									"    pm.response.to.have.status(404)\r",
									"})\r",
									"pm.test(\"Status ok\", function(){\r",
									"    pm.response.to.have.status(200)\r",
									"})\r",
									"pm.test(\"Responce status ok\", function () {\r",
									"    pm.response.to.not.be.error;\r",
									"    pm.response.to.have.jsonBody(\"\");\r",
									"    pm.response.to.not.have.jsonBody(\"error\");\r",
									"});\r",
									"pm.test(\"Response have body\", function () {\r",
									"     pm.response.to.be.ok;\r",
									"     pm.response.to.be.withBody;\r",
									"     pm.response.to.be.json;\r",
									"});"
								],
								"type": "text/javascript"
							}
						}
					],
					"request": {
						"auth": {
							"type": "apikey",
							"apikey": [
								{
									"key": "value",
									"value": "Token {{token}}",
									"type": "string"
								},
								{
									"key": "key",
									"value": "Autorization",
									"type": "string"
								}
							]
						},
						"method": "GET",
						"header": [],
						"url": {
							"raw": "http://localhost:8000/api/newsposts",
							"protocol": "http",
							"host": [
								"localhost"
							],
							"port": "8000",
							"path": [
								"api",
								"newsposts"
							]
						}
					},
					"response": []
				},
				{
					"name": "newsposts with params",
					"request": {
						"auth": {
							"type": "apikey",
							"apikey": [
								{
									"key": "value",
									"value": "Token {{token}}",
									"type": "string"
								},
								{
									"key": "key",
									"value": "Autorization",
									"type": "string"
								}
							]
						},
						"method": "GET",
						"header": [],
						"url": {
							"raw": "http://localhost:8000/api/newsposts?size={{size}}&page={{page}}",
							"protocol": "http",
							"host": [
								"localhost"
							],
							"port": "8000",
							"path": [
								"api",
								"newsposts"
							],
							"query": [
								{
									"key": "size",
									"value": "{{size}}"
								},
								{
									"key": "page",
									"value": "{{page}}"
								}
							]
						}
					},
					"response": []
				},
				{
					"name": "create newspost",
					"event": [
						{
							"listen": "test",
							"script": {
								"exec": [
									"pm.collectionVariables.set(\"newspostId\", pm.response.json().id)"
								],
								"type": "text/javascript"
							}
						}
					],
					"request": {
						"auth": {
							"type": "apikey",
							"apikey": [
								{
									"key": "value",
									"value": "Token {{token}}",
									"type": "string"
								},
								{
									"key": "key",
									"value": "Autorization",
									"type": "string"
								}
							]
						},
						"method": "POST",
						"header": [],
						"body": {
							"mode": "raw",
							"raw": "{\r\n    \"title\": \"hello\",\r\n    \"text\": \"world\",\r\n    \"genre\": \"Business\",\r\n    \"isPrivate\": false\r\n}",
							"options": {
								"raw": {
									"language": "json"
								}
							}
						},
						"url": {
							"raw": "http://localhost:8000/api/newsposts",
							"protocol": "http",
							"host": [
								"localhost"
							],
							"port": "8000",
							"path": [
								"api",
								"newsposts"
							]
						}
					},
					"response": []
				},
				{
					"name": "newsposts by id",
					"event": [
						{
							"listen": "test",
							"script": {
								"exec": [
									"pm.test(\"status not found\", function(){\r",
									"    pm.response.to.have.status(404)\r",
									"})\r",
									"pm.test(\"Status ok\", function(){\r",
									"    pm.response.to.have.status(200)\r",
									"})\r",
									"pm.test(\"Responce status ok\", function () {\r",
									"    pm.response.to.not.be.error;\r",
									"    pm.response.to.have.jsonBody(\"\");\r",
									"    pm.response.to.not.have.jsonBody(\"error\");\r",
									"});\r",
									"pm.test(\"Response have body\", function () {\r",
									"     pm.response.to.be.ok;\r",
									"     pm.response.to.be.withBody;\r",
									"     pm.response.to.be.json;\r",
									"});"
								],
								"type": "text/javascript"
							}
						}
					],
					"request": {
						"auth": {
							"type": "apikey",
							"apikey": [
								{
									"key": "value",
									"value": "Token {{token}}",
									"type": "string"
								},
								{
									"key": "key",
									"value": "Autorization",
									"type": "string"
								}
							]
						},
						"method": "GET",
						"header": [],
						"url": {
							"raw": "http://localhost:8000/api/newsposts/{{newspostId}}",
							"protocol": "http",
							"host": [
								"localhost"
							],
							"port": "8000",
							"path": [
								"api",
								"newsposts",
								"{{newspostId}}"
							]
						}
					},
					"response": []
				},
				{
					"name": "update newspost",
					"event": [
						{
							"listen": "test",
							"script": {
								"exec": [
									"pm.collectionVariables.set(\"newspostId\", pm.response.json().id)\r",
									"pm.test(\"status not found\", function(){\r",
									"    pm.response.to.have.status(404)\r",
									"})\r",
									"pm.test(\"Status ok\", function(){\r",
									"    pm.response.to.have.status(200)\r",
									"})\r",
									"pm.test(\"Responce status ok\", function () {\r",
									"    pm.response.to.not.be.error;\r",
									"    pm.response.to.have.jsonBody(\"\");\r",
									"    pm.response.to.not.have.jsonBody(\"error\");\r",
									"});\r",
									"pm.test(\"Response have body\", function () {\r",
									"     pm.response.to.be.ok;\r",
									"     pm.response.to.be.withBody;\r",
									"     pm.response.to.be.json;\r",
									"});"
								],
								"type": "text/javascript"
							}
						}
					],
					"request": {
						"auth": {
							"type": "apikey",
							"apikey": [
								{
									"key": "value",
									"value": "Token {{token}}",
									"type": "string"
								},
								{
									"key": "key",
									"value": "Autorization",
									"type": "string"
								}
							]
						},
						"method": "PUT",
						"header": [],
						"body": {
							"mode": "raw",
							"raw": "{\r\n    \"title\": \"buy\",\r\n    \"text\": \"all\",\r\n    \"genre\": \"Business\",\r\n    \"isPrivate\": false\r\n}",
							"options": {
								"raw": {
									"language": "json"
								}
							}
						},
						"url": {
							"raw": "http://localhost:8000/api/newsposts/{{newspostId}}",
							"protocol": "http",
							"host": [
								"localhost"
							],
							"port": "8000",
							"path": [
								"api",
								"newsposts",
								"{{newspostId}}"
							]
						}
					},
					"response": []
				},
				{
					"name": "delete newspost",
					"event": [
						{
							"listen": "test",
							"script": {
								"exec": [
									"pm.collectionVariables.set(\"newspostId\", \"\")\r",
									"pm.test(\"status not found\", function(){\r",
									"    pm.response.to.have.status(404)\r",
									"})\r",
									"pm.test(\"Status ok\", function(){\r",
									"    pm.response.to.have.status(200)\r",
									"})\r",
									"pm.test(\"Responce status ok\", function () {\r",
									"    pm.response.to.not.be.error;\r",
									"    pm.response.to.have.jsonBody(\"\");\r",
									"    pm.response.to.not.have.jsonBody(\"error\");\r",
									"});\r",
									"pm.test(\"Response have body\", function () {\r",
									"     pm.response.to.be.ok;\r",
									"     pm.response.to.be.withBody;\r",
									"     pm.response.to.be.json;\r",
									"});"
								],
								"type": "text/javascript"
							}
						}
					],
					"request": {
						"auth": {
							"type": "apikey",
							"apikey": [
								{
									"key": "value",
									"value": "Token {{token}}",
									"type": "string"
								},
								{
									"key": "key",
									"value": "Autorization",
									"type": "string"
								}
							]
						},
						"method": "DELETE",
						"header": [],
						"url": {
							"raw": "http://localhost:8000/api/newsposts/{{newspostId}}",
							"protocol": "http",
							"host": [
								"localhost"
							],
							"port": "8000",
							"path": [
								"api",
								"newsposts",
								"{{newspostId}}"
							]
						}
					},
					"response": []
				}
			]
		}
	],
	"event": [
		{
			"listen": "prerequest",
			"script": {
				"type": "text/javascript",
				"exec": [
					""
				]
			}
		},
		{
			"listen": "test",
			"script": {
				"type": "text/javascript",
				"exec": [
					""
				]
			}
		}
	],
	"variable": [
		{
			"key": "newspostId",
			"value": "WREsINJb30D8i5qdPEvTQ",
			"type": "string"
		},
		{
			"key": "email",
			"value": "\"o@io.aa\"",
			"type": "string"
		},
		{
			"key": "password",
			"value": "\"password\"",
			"type": "string"
		},
		{
			"key": "token",
			"value": "",
			"type": "string"
		},
		{
			"key": "size",
			"value": "10",
			"type": "string"
		},
		{
			"key": "page",
			"value": "2",
			"type": "string"
		}
	]
}